IS415-GAA - Take Home Exercise 02
…
Code

HCSA <- wm_idw %>% 
  mutate(local_Gi = local_gstar_perm(
    dengue_cases, nb, wt, nsim = 99),
         .before = 1) %>%
  unnest(local_Gi)
HCSA

Simple feature collection with 3923 features and 16 fields
Geometry type: POLYGON
Dimension:     XY
Bounding box:  xmin: 120.0627 ymin: 22.89401 xmax: 120.2925 ymax: 23.09144
Geodetic CRS:  TWD97
# A tibble: 3,923 × 17
   gi_star    e_gi   var_gi p_value   p_sim p_folded_sim skewness kurtosis nb   
     <dbl>   <dbl>    <dbl>   <dbl>   <dbl>        <dbl>    <dbl>    <dbl> <nb> 
 1   -2.66 2.54e-4 3.56e- 9   -2.87 4.05e-3         0.02     0.01   0.378  <int>
 2   -4.20 2.45e-4 8.42e-10   -4.01 6.11e-5         0.02     0.01   0.343  <int>
 3   -4.20 2.62e-4 9.14e-10   -4.40 1.10e-5         0.02     0.01   0.119  <int>
 4   -4.20 2.52e-4 8.69e-10   -4.17 3.00e-5         0.02     0.01   0.173  <int>
 5   -4.20 2.56e-4 8.54e-10   -4.36 1.31e-5         0.02     0.01   0.0801 <int>
 6   -4.20 2.52e-4 8.95e-10   -4.09 4.28e-5         0.02     0.01   0.321  <int>
 7   -4.20 2.55e-4 9.39e-10   -4.12 3.77e-5         0.02     0.01   0.467  <int>
 8   -4.20 2.57e-4 8.43e-10   -4.42 1.00e-5         0.02     0.01   0.202  <int>
 9   -4.20 2.50e-4 9.47e-10   -3.92 8.94e-5         0.02     0.01   0.0967 <int>
10   -4.20 2.61e-4 6.91e-10   -5.01 5.44e-7         0.02     0.01   0.192  <int>
# ℹ 3,913 more rows
# ℹ 8 more variables: wts <list>, COUNTYNAME <chr>, VILLNAME <chr>,
#   VILLENG <chr>, TOWNID <chr>, village <chr>, dengue_cases <int>,
#   geometry <POLYGON [°]>
…
