IS415-GAA - Take Home Excerise 03
…
2.2 Importing aspatial data

Code

pci_2021 <- read_csv("data/aspatial/pci_2021.csv")

Code

pci_2021

# A tibble: 63 × 7
   Region                 Province Sub-Index 10: Law & …¹ Good security situat…²
   <chr>                  <chr>                     <dbl> <chr>                 
 1 Mekong River           An Giang                   6.86 72%                   
 2 Southeast              BRVT                       7.41 77%                   
 3 Northern midlands and… Bac Gia…                   8.6  87%                   
 4 Northern midlands and… Bac Kan                    8.02 87%                   
 5 Mekong River           Bac Lieu                   8.02 91%                   
 6 Red River Delta        Bac Ninh                   7.09 85%                   
 7 Mekong River           Ben Tre                    7.83 81%                   
 8 Central Coast          Binh Di…                   8.04 73%                   
 9 Southeast              Binh Du…                   6.84 61%                   
10 Southeast              Binh Ph…                   7.49 60%                   
# ℹ 53 more rows
# ℹ abbreviated names: ¹​`Sub-Index 10: Law & Order`,
#   ²​`Good security situation in the province (%)`
# ℹ 3 more variables: `Victim of theft or break-in last year (%)` <chr>,
#   `Local police handle firm's case effectively (%)` <chr>,
#   `Pay money to gangsters groups (%)` <chr>
…
